<svg width="16" height="15" viewBox="0 0 16 15" fill="none" xmlns="http://www.w3.org/2000/svg">
<path opacity="0.4" d="M0.727296 9.98438C0.727296 10.2656 0.828857 10.5 1.03198 10.6875C1.23511 10.875 1.46167 10.9688 1.71167 10.9688H11.7429L10.5549 15L15.7273 10.9688V0.984375C15.7273 0.703125 15.6257 0.46875 15.4226 0.28125C15.2195 0.09375 14.9929 0 14.7429 0H1.71167C1.46167 0 1.23511 0.09375 1.03198 0.28125C0.828857 0.46875 0.727296 0.703125 0.727296 0.984375V9.98438Z" fill="#6E8FED"/>
</svg>
