<svg width="18" height="18" viewBox="0 0 18 18" fill="none" xmlns="http://www.w3.org/2000/svg">
    <path d="M13.5266 12.8475L17.0958 16.4158L15.9166 17.595L12.3483 14.0258C11.0206 15.0902 9.36915 15.6691 7.66748 15.6667C3.52748 15.6667 0.16748 12.3067 0.16748 8.16666C0.16748 4.02666 3.52748 0.666656 7.66748 0.666656C11.8075 0.666656 15.1675 4.02666 15.1675 8.16666C15.1699 9.86832 14.591 11.5198 13.5266 12.8475ZM11.855 12.2292C12.9126 11.1416 13.5032 9.68368 13.5008 8.16666C13.5008 4.94332 10.89 2.33332 7.66748 2.33332C4.44415 2.33332 1.83415 4.94332 1.83415 8.16666C1.83415 11.3892 4.44415 14 7.66748 14C9.18451 14.0024 10.6424 13.4118 11.73 12.3542L11.855 12.2292Z" fill="#333333"/>
</svg>
